"_id:id","_labels:label","name","mac_address","pathname","gpio_pin:int","description","_start:id","_end:id","_type:label","description"
"0",":Database","Neo4j","","","","",,,,
"1",":Message","Hello World!","","","","",,,,
"20",":Microcontroller:esp8266","Basement controller","0xdeadbeef","","","",,,,
"21",":PhysicalHouse:PhysicalStructure","Alton","","alton","","",,,,
"40",":ConnectionGPIO:ElectricalInterface:TripleJSTConnector","JST GPIO 8","","","8","",,,,
"41",":GenericSensor:ProprietaryHumiditySensor","Humidity","","","","",,,,
"42",":ConnectionGPIO:ElectricalInterface:TripleJSTConnector","JST GPIO 10","","","10","",,,,
"43",":ElectricalSwitchSensor:GenericSensor:LeakReedSwitch","Garage leak","","garage_floor_leak","","",,,,
"44",":PhysicalRoom:PhysicalStructure","KrisLair","","krislair","","",,,,
"45","","","","","","",,,,
"46","","","","","","",,,,
"47","","","","","","",,,,
"48","","","","","","",,,,
"49","","","","","","",,,,
"50","","","","","","",,,,
"51","","","","","","",,,,
,,,,,,,"0","1","SAYS",""
,,,,,,,"40","20","WIRED_TO",""
,,,,,,,"41","40","CONNECTED_TO",""
,,,,,,,"43","42","CONNECTED_TO",""
,,,,,,,"44","21","PART_OF",""
,,,,,,,"42","20","WIRED_TO",""
,,,,,,,"43","44","PART_OF",""
,,,,,,,"45","46","RELATED",""
,,,,,,,"47","46","RELATED",""
,,,,,,,"46","48","RELATED",""
,,,,,,,"49","48","RELATED",""
,,,,,,,"50","49","RELATED",""
,,,,,,,"49","51","RELATED",""
